simulation/qsim/updowncounter.msim.vcd
$comment
	File created using the following command:
		vcd file updowncounter.msim.vcd -direction
$end
$date
	Mon Oct 14 15:48:25 2019
$end
$version
	ModelSim Version 10.5b
$end
$timescale
	1ps
$end

$scope module top_vhd_vec_tst $end
$var wire 1 ! clock $end
$var wire 1 " control [5] $end
$var wire 1 # control [4] $end
$var wire 1 $ control [3] $end
$var wire 1 % control [2] $end
$var wire 1 & control [1] $end
$var wire 1 ' control [0] $end
$var wire 1 ( dec [6] $end
$var wire 1 ) dec [5] $end
$var wire 1 * dec [4] $end
$var wire 1 + dec [3] $end
$var wire 1 , dec [2] $end
$var wire 1 - dec [1] $end
$var wire 1 . dec [0] $end
$var wire 1 / led $end
$var wire 1 0 seg [1] $end
$var wire 1 1 seg [0] $end

$scope module i1 $end
$var wire 1 2 gnd $end
$var wire 1 3 vcc $end
$var wire 1 4 unknown $end
$var wire 1 5 devoe $end
$var wire 1 6 devclrn $end
$var wire 1 7 devpor $end
$var wire 1 8 ww_devoe $end
$var wire 1 9 ww_devclrn $end
$var wire 1 : ww_devpor $end
$var wire 1 ; ww_control [5] $end
$var wire 1 < ww_control [4] $end
$var wire 1 = ww_control [3] $end
$var wire 1 > ww_control [2] $end
$var wire 1 ? ww_control [1] $end
$var wire 1 @ ww_control [0] $end
$var wire 1 A ww_clock $end
$var wire 1 B ww_led $end
$var wire 1 C ww_dec [6] $end
$var wire 1 D ww_dec [5] $end
$var wire 1 E ww_dec [4] $end
$var wire 1 F ww_dec [3] $end
$var wire 1 G ww_dec [2] $end
$var wire 1 H ww_dec [1] $end
$var wire 1 I ww_dec [0] $end
$var wire 1 J ww_seg [1] $end
$var wire 1 K ww_seg [0] $end
$var wire 1 L \clock~inputclkctrl_INCLK_bus\ [3] $end
$var wire 1 M \clock~inputclkctrl_INCLK_bus\ [2] $end
$var wire 1 N \clock~inputclkctrl_INCLK_bus\ [1] $end
$var wire 1 O \clock~inputclkctrl_INCLK_bus\ [0] $end
$var wire 1 P \control[0]~input_o\ $end
$var wire 1 Q \control[1]~input_o\ $end
$var wire 1 R \control[2]~input_o\ $end
$var wire 1 S \control[3]~input_o\ $end
$var wire 1 T \control[4]~input_o\ $end
$var wire 1 U \control[5]~input_o\ $end
$var wire 1 V \led~output_o\ $end
$var wire 1 W \dec[0]~output_o\ $end
$var wire 1 X \dec[1]~output_o\ $end
$var wire 1 Y \dec[2]~output_o\ $end
$var wire 1 Z \dec[3]~output_o\ $end
$var wire 1 [ \dec[4]~output_o\ $end
$var wire 1 \ \dec[5]~output_o\ $end
$var wire 1 ] \dec[6]~output_o\ $end
$var wire 1 ^ \seg[0]~output_o\ $end
$var wire 1 _ \seg[1]~output_o\ $end
$var wire 1 ` \clock~input_o\ $end
$var wire 1 a \clock~inputclkctrl_outclk\ $end
$var wire 1 b \c|ctr[1]~6\ $end
$var wire 1 c \c|ctr[2]~7_combout\ $end
$var wire 1 d \c|Equal0~0_combout\ $end
$var wire 1 e \c|Equal0~1_combout\ $end
$var wire 1 f \c|ctr[2]~8\ $end
$var wire 1 g \c|ctr[3]~9_combout\ $end
$var wire 1 h \c|ctr[3]~10\ $end
$var wire 1 i \c|ctr[4]~11_combout\ $end
$var wire 1 j \c|ctr[4]~12\ $end
$var wire 1 k \c|ctr[5]~13_combout\ $end
$var wire 1 l \c|ctr[0]~15_combout\ $end
$var wire 1 m \c|ctr[1]~5_combout\ $end
$var wire 1 n \gd|disp1[0]~0_combout\ $end
$var wire 1 o \gd|disp1[0]~1_combout\ $end
$var wire 1 p \gd|disp1[0]~2_combout\ $end
$var wire 1 q \gd|disp1[1]~3_combout\ $end
$var wire 1 r \gd|disp1[2]~4_combout\ $end
$var wire 1 s \c|ctr\ [5] $end
$var wire 1 t \c|ctr\ [4] $end
$var wire 1 u \c|ctr\ [3] $end
$var wire 1 v \c|ctr\ [2] $end
$var wire 1 w \c|ctr\ [1] $end
$var wire 1 x \c|ctr\ [0] $end
$var wire 1 y \ALT_INV_clock~inputclkctrl_outclk\ $end
$upscope $end
$upscope $end
$enddefinitions $end
#0
$dumpvars
0!
0/
02
13
x4
15
16
17
18
19
1:
0A
0B
0P
0Q
0R
0S
0T
0U
0V
0W
0X
0Y
0Z
0[
0\
0]
0^
0_
0`
0a
0b
0c
0d
1e
1f
0g
0h
0i
1j
0k
1l
0m
0n
0o
0p
0q
0r
1y
0"
0#
0$
0%
0&
0'
0;
0<
0=
0>
0?
0@
0C
0D
0E
0F
0G
0H
0I
0J
0K
0s
0t
0u
0v
0w
0x
1L
1M
1N
0O
0(
0)
0*
0+
0,
0-
0.
00
01
$end
#20000
1!
1A
1`
1O
1a
0y
#40000
0!
0A
0`
0O
0a
1y
1x
1m
0l
#60000
1!
1A
1`
1O
1a
0y
#80000
0!
0A
0`
0O
0a
1y
0x
1w
1l
#100000
1!
1A
1`
1O
1a
0y
#120000
0!
0A
0`
0O
0a
1y
1x
0m
1b
0l
1c
#140000
1!
1A
1`
1O
1a
0y
#160000
0!
0A
0`
0O
0a
1y
1v
0x
0w
0b
0c
0f
1l
1g
1c
1f
0g
#180000
1!
1A
1`
1O
1a
0y
#200000
0!
0A
0`
0O
0a
1y
1x
1m
0l
#220000
1!
1A
1`
1O
1a
0y
#240000
0!
0A
0`
0O
0a
1y
0x
1w
1l
#260000
1!
1A
1`
1O
1a
0y
#280000
0!
0A
0`
0O
0a
1y
1x
0m
1b
0l
0c
0f
1g
#300000
1!
1A
1`
1O
1a
0y
#320000
0!
0A
0`
0O
0a
1y
0v
1u
0x
0w
0b
0g
1h
1c
1f
1l
1n
1p
1g
0h
1i
0c
0i
1W
1I
1.
#340000
1!
1A
1`
1O
1a
0y
#360000
0!
0A
0`
0O
0a
1y
1x
1m
0l
#380000
1!
1A
1`
1O
1a
0y
#400000
0!
0A
0`
0O
0a
1y
0x
1w
1l
#420000
1!
1A
1`
1O
1a
0y
#440000
0!
0A
0`
0O
0a
1y
1x
0m
1b
0l
1c
#460000
1!
1A
1`
1O
1a
0y
#480000
0!
0A
0`
0O
0a
1y
1v
0x
0w
0b
0c
0f
1l
0n
1o
0g
1h
1c
1f
1g
0h
1i
0i
#500000
1!
1A
1`
1O
1a
0y
#520000
0!
0A
0`
0O
0a
1y
1x
1m
0l
#540000
1!
1A
1`
1O
1a
0y
#560000
0!
0A
0`
0O
0a
1y
0x
1w
0p
1l
0W
0I
0.
#580000
1!
1A
1`
1O
1a
0y
#600000
0!
0A
0`
0O
0a
1y
1x
0m
1b
0l
0c
0f
0g
1h
1i
#620000
1!
1A
1`
1O
1a
0y
#640000
0!
0A
0`
0O
0a
1y
0v
0u
1t
0x
0w
1p
0b
0i
0j
1g
0h
1c
1f
1l
0o
1q
0p
0g
1i
1j
1k
0c
0k
1X
1W
1H
1I
0W
1.
1-
0I
0.
#660000
1!
1A
1`
1O
1a
0y
#680000
0!
0A
0`
0O
0a
1y
1x
1m
0l
#700000
1!
1A
1`
1O
1a
0y
#720000
0!
0A
0`
0O
0a
1y
0x
1w
1l
#740000
1!
1A
1`
1O
1a
0y
#760000
0!
0A
0`
0O
0a
1y
1x
0m
1b
0l
1c
#780000
1!
1A
1`
1O
1a
0y
#800000
0!
0A
0`
0O
0a
1y
1v
0x
0w
0b
0c
0f
1l
1o
1p
1g
1c
1f
0g
1W
1I
1.
#820000
1!
1A
1`
1O
1a
0y
#840000
0!
0A
0`
0O
0a
1y
1x
1m
0l
#860000
1!
1A
1`
1O
1a
0y
#880000
0!
0A
0`
0O
0a
1y
0x
1w
0p
1l
0W
0I
0.
#900000
1!
1A
1`
1O
1a
0y
#920000
0!
0A
0`
0O
0a
1y
1x
0m
1b
0l
0c
0f
1g
#940000
1!
1A
1`
1O
1a
0y
#960000
0!
0A
0`
0O
0a
1y
0v
1u
0x
0w
1p
0b
0g
1h
1c
1f
1l
0o
0p
1g
0h
0i
0j
0c
1k
1i
1j
1W
0k
1I
0W
1.
0I
0.
#980000
1!
1A
1`
1O
1a
0y
